PK - MOWNiT - lab 2 - rozwiązanie
…
    end
end

measurements_df = DataFrame(Rozmiar = size_of_vectors,
    Czas = time_measure,
    Typ = measure_type)
show(measurements_df)

200×3 DataFrame
 Row │ Rozmiar   Czas         Typ   
     │ Int64     Float32      Int64 
─────┼──────────────────────────────
   1 │     1000  0.0006817        1
   2 │  1000000  0.0010947        0
   3 │     1000  0.0007953        1
   4 │  1000000  0.001085         0
   5 │     1000  0.0009623        1
   6 │  1000000  0.0011345        0
   7 │     1000  0.0006047        1
   8 │  1000000  0.0013617        0
   9 │     1000  0.000679901      1
  10 │  1000000  0.0010652        0
  11 │     1000  0.0006965        1
  ⋮  │    ⋮           ⋮         ⋮
 191 │    10000  0.0598508        1
 192 │ 10000000  0.0101762        0
 193 │    10000  0.0579126        1
 194 │ 10000000  0.0100938        0
 195 │    10000  0.0584644        1
 196 │ 10000000  0.0097915        0
 197 │    10000  0.0561227        1
 198 │ 10000000  0.0121283        0
 199 │    10000  0.0596328        1
 200 │ 10000000  0.0096702        0
                    179 rows omitted
…
